{
    "tracks": {
        "href": "https: //api.spotify.com/v1/search?query=drake&type=track&offset=0&limit=2",
        "items": [
            {
                "album": {
                    "album_type": "album",
                    "artists": [
                        {
                            "external_urls": {
                                "spotify": "https://open.spotify.com/artist/3TVXtAsR1Inumwj472S9r4"
                            },
                            "href": "https://api.spotify.com/v1/artists/3TVXtAsR1Inumwj472S9r4",
                            "id": "3TVXtAsR1Inumwj472S9r4",
                            "name": "Drake",
                            "type": "artist",
                            "uri": "spotify:artist:3TVXtAsR1Inumwj472S9r4"
                        }
                    ],
                    "available_markets": [],
                    "external_urls": {
                        "spotify": "https: //open.spotify.com/album/3SpBlxme9WbeQdI9kx7KAV"
                    },
                    "href": "https://api.spotify.com/v1/albums/3SpBlxme9WbeQdI9kx7KAV",
                    "id": "3SpBlxme9WbeQdI9kx7KAV",
                    "images": [
                        {
                            "height": 640,
                            "url": "https://i.scdn.co/image/ab67616d0000b273cd945b4e3de57edd28481a3f",
                            "width": 640
                        },
                        {
                            "height": 300,
                            "url": "https://i.scdn.co/image/ab67616d00001e02cd945b4e3de57edd28481a3f",
                            "width": 300
                        },
                        {
                            "height": 64,
                            "url": "https: //i.scdn.co/image/ab67616d00004851cd945b4e3de57edd28481a3f",
                            "width": 64
                        }
                    ],
                    "name": "Certified Lover Boy",
                    "release_date": "2021-09-03",
                    "release_date_precision": "day",
                    "total_tracks": 21,
                    "type": "album",
                    "uri": "spotify:album:3SpBlxme9WbeQdI9kx7KAV"
                },
                "artists": [
                    {
                        "external_urls": {
                            "spotify": "https://open.spotify.com/artist/3TVXtAsR1Inumwj472S9r4"
                        },
                        "href": "https://api.spotify.com/v1/artists/3TVXtAsR1Inumwj472S9r4",
                        "id": "3TVXtAsR1Inumwj472S9r4",
                        "name": "Drake",
                        "type": "artist",
                        "uri": "spotify:artist:3TVXtAsR1Inumwj472S9r4"
                    },
                    {
                        "external_urls": {
                            "spotify": "https://open.spotify.com/artist/1RyvyyTE3xzB2ZywiAwp0i"
                        },
                        "href": "https://api.spotify.com/v1/artists/1RyvyyTE3xzB2ZywiAwp0i",
                        "id": "1RyvyyTE3xzB2ZywiAwp0i",
                        "name": "Future",
                        "type": "artist",
                        "uri": "spotify:artist:1RyvyyTE3xzB2ZywiAwp0i"
                    },
                    {
                        "external_urls": {
                            "spotify": "https://open.spotify.com/artist/50co4Is1HCEo8bhOyUWKpn"
                        },
                        "href": "https://api.spotify.com/v1/artists/50co4Is1HCEo8bhOyUWKpn",
                        "id": "50co4Is1HCEo8bhOyUWKpn",
                        "name": "Young Thug",
                        "type": "artist",
                        "uri": "spotify:artist:50co4Is1HCEo8bhOyUWKpn"
                    }
                ],
                "available_markets": [],
                "disc_number": 1,
                "duration_ms": 257604,
                "explicit": "True",
                "external_ids": {
                    "isrc": "USUG12104403"
                },
                "external_urls": {
                    "spotify": "https: //open.spotify.com/track/0k1WUmIRnG3xU6fvvDVfRG"
                },
                "href": "https://api.spotify.com/v1/tracks/0k1WUmIRnG3xU6fvvDVfRG",
                "id": "0k1WUmIRnG3xU6fvvDVfRG",
                "is_local": "False",
                "name": "Way 2 Sexy (with Future & Young Thug)",
                "popularity": 91,
                "preview_url": "None",
                "track_number": 7,
                "type": "track",
                "uri": "spotify:track:0k1WUmIRnG3xU6fvvDVfRG"
            },
            {
                "album": {
                    "album_type": "album",
                    "artists": [
                        {
                            "external_urls": {
                                "spotify": "https://open.spotify.com/artist/3TVXtAsR1Inumwj472S9r4"
                            },
                            "href": "https://api.spotify.com/v1/artists/3TVXtAsR1Inumwj472S9r4",
                            "id": "3TVXtAsR1Inumwj472S9r4",
                            "name": "Drake",
                            "type": "artist",
                            "uri": "spotify:artist:3TVXtAsR1Inumwj472S9r4"
                        }
                    ],
                    "available_markets": [],
                    "external_urls": {
                        "spotify": "https://open.spotify.com/album/1ATL5GLyefJaxhQzSPVrLX"
                    },
                    "href": "https://api.spotify.com/v1/albums/1ATL5GLyefJaxhQzSPVrLX",
                    "id": "1ATL5GLyefJaxhQzSPVrLX",
                    "images": [
                        {
                            "height": 640,
                            "url": "https://i.scdn.co/image/ab67616d0000b273f907de96b9a4fbc04accc0d5",
                            "width": 640
                        },
                        {
                            "height": 300,
                            "url": "https://i.scdn.co/image/ab67616d00001e02f907de96b9a4fbc04accc0d5",
                            "width": 300
                        },
                        {
                            "height": 64,
                            "url": "https://i.scdn.co/image/ab67616d00004851f907de96b9a4fbc04accc0d5",
                            "width": 64
                        }
                    ],
                    "name": "Scorpion",
                    "release_date": "2018-06-29",
                    "release_date_precision": "day",
                    "total_tracks": 25,
                    "type": "album",
                    "uri": "spotify:album:1ATL5GLyefJaxhQzSPVrLX"
                },
                "artists": [
                    {
                        "external_urls": {
                            "spotify": "https://open.spotify.com/artist/3TVXtAsR1Inumwj472S9r4"
                        },
                        "href": "https://api.spotify.com/v1/artists/3TVXtAsR1Inumwj472S9r4",
                        "id": "3TVXtAsR1Inumwj472S9r4",
                        "name": "Drake",
                        "type": "artist",
                        "uri": "spotify:artist: 3TVXtAsR1Inumwj472S9r4"
                    }
                ],
                "available_markets": [],
                "disc_number": 1,
                "duration_ms": 198973,
                "explicit": "True",
                "external_ids": {
                    "isrc": "USCM51800004"
                },
                "external_urls": {
                    "spotify": "https: //open.spotify.com/track/6DCZcSspjsKoFjzjrWoCdn"
                },
                "href": "https://api.spotify.com/v1/tracks/6DCZcSspjsKoFjzjrWoCdn",
                "id": "6DCZcSspjsKoFjzjrWoCdn",
                "is_local": "False",
                "name": "God's Plan", 
                "popularity": 83, 
                "preview_url": "None", 
                "track_number": 5, 
                "type": "track",
                "uri": "spotify:track: 6DCZcSspjsKoFjzjrWoCdn"
            }
        ],
        "limit": 2,
        "next": "https: //api.spotify.com/v1/search?query=drake&type=track&offset=2&limit=2",
        "offset": 0,
        "previous": "None",
        "total": 10001
    }
}